module gitlab.com/go-course-project/go13/vblog

go 1.21.3

require (
	dario.cat/mergo v1.0.0
	github.com/BurntSushi/toml v1.3.2
	github.com/caarlos0/env/v6 v6.10.1
	github.com/gin-contrib/cors v1.6.0
	github.com/gin-gonic/gin v1.9.1
	github.com/go-playground/validator/v10 v10.19.0
	github.com/infraboard/mcube v1.9.29
	github.com/rs/xid v1.5.0
	github.com/spf13/cobra v1.8.0
	golang.org/x/crypto v0.21.0
	gorm.io/driver/mysql v1.5.2
	gorm.io/gorm v1.25.5
)

require (
	github.com/bytedance/sonic v1.11.2 // indirect
	github.com/chenzhuoyu/base64x v0.0.0-20230717121745-296ad89f973d // indirect
	github.com/chenzhuoyu/iasm v0.9.1 // indirect
	github.com/gabriel-vasile/mimetype v1.4.3 // indirect
	github.com/gin-contrib/sse v0.1.0 // indirect
	github.com/go-playground/locales v0.14.1 // indirect
	github.com/go-playground/universal-translator v0.18.1 // indirect
	github.com/go-sql-driver/mysql v1.7.0 // indirect
	github.com/goccy/go-json v0.10.2 // indirect
	github.com/inconshreveable/mousetrap v1.1.0 // indirect
	github.com/jinzhu/inflection v1.0.0 // indirect
	github.com/jinzhu/now v1.1.5 // indirect
	github.com/json-iterator/go v1.1.12 // indirect
	github.com/klauspost/cpuid/v2 v2.2.7 // indirect
	github.com/kr/text v0.2.0 // indirect
	github.com/leodido/go-urn v1.4.0 // indirect
	github.com/mattn/go-isatty v0.0.20 // indirect
	github.com/modern-go/concurrent v0.0.0-20180306012644-bacd9c7ef1dd // indirect
	github.com/modern-go/reflect2 v1.0.2 // indirect
	github.com/pelletier/go-toml/v2 v2.1.1 // indirect
	github.com/spf13/pflag v1.0.5 // indirect
	github.com/twitchyliquid64/golang-asm v0.15.1 // indirect
	github.com/ugorji/go/codec v1.2.12 // indirect
	golang.org/x/arch v0.7.0 // indirect
	golang.org/x/net v0.22.0 // indirect
	golang.org/x/sys v0.18.0 // indirect
	golang.org/x/text v0.14.0 // indirect
	google.golang.org/protobuf v1.33.0 // indirect
	gopkg.in/yaml.v2 v2.4.0 // indirect
	gopkg.in/yaml.v3 v3.0.1 // indirect
	sigs.k8s.io/yaml v1.3.0 // indirect
)
